2 Data – Election Data Analysis
…
house_data_simplified <- house_data_grouped |>
  group_by(year, state, state_po, simplified_party) |>
  summarise(total_house = sum(totalvotes), vote_share = sum(vote_share)) |>
  ungroup()

`summarise()` has grouped output by 'year', 'state', 'state_po'. You can
override using the `.groups` argument.

Code

house_data_simplified

# A tibble: 3,797 × 6
    year state   state_po simplified_party   total_house vote_share
   <int> <chr>   <chr>    <chr>                    <int>      <dbl>
 1  1976 ALABAMA AL       DEMOCRAT(House)        1146699     503.  
 2  1976 ALABAMA AL       OTHER(House)            929711       1.04
 3  1976 ALABAMA AL       REPUBLICAN(House)       652072     196.  
 4  1976 ALASKA  AK       DEMOCRAT(House)         118208      28.9 
 5  1976 ALASKA  AK       OTHER(House)            118208       0.25
 6  1976 ALASKA  AK       REPUBLICAN(House)       118208      70.8 
 7  1976 ARIZONA AZ       DEMOCRAT(House)         729002     195.  
 8  1976 ARIZONA AZ       LIBERTARIAN(House)      541837       6.85
 9  1976 ARIZONA AZ       OTHER(House)            355284      10.8 
10  1976 ARIZONA AZ       REPUBLICAN(House)       729002     188.  
# ℹ 3,787 more rows
…
`summarise()` has grouped output by 'year', 'state'. You can override using the
`.groups` argument.

Code

house_pivoted_data 

# A tibble: 1,151 × 8
# Groups:   year, state [1,151]
    year state       state_po total_house `DEMOCRAT(House)` `OTHER(House)`
   <int> <chr>       <chr>          <int>             <dbl>          <dbl>
 1  1976 ALABAMA     AL           2728482             503.            1.04
 2  1976 ALASKA      AK            118208              28.9           0.25
 3  1976 ARIZONA     AZ           1626123             195.           10.8 
 4  1976 ARKANSAS    AR            503997             255.            0   
 5  1976 CALIFORNIA  CA          17235407            2504.           50.6 
 6  1976 COLORADO    CO           1979691             223.           13.8 
 7  1976 CONNECTICUT CT           4700193             303.            7.01
 8  1976 DELAWARE    DE           1075425              47.6           0.94
 9  1976 FLORIDA     FL           4709797            1014             8.92
10  1976 GEORGIA     GA           2239818             779.            0.55
# ℹ 1,141 more rows
# ℹ 2 more variables: `REPUBLICAN(House)` <dbl>, `LIBERTARIAN(House)` <dbl>
…
`summarise()` has grouped output by 'year', 'state', 'state_po'. You can
override using the `.groups` argument.

Code

senate_pivoted_data <- senate_data_simplified |>
  pivot_wider(
    names_from = party_simplified,  
    values_from = vote_share,       
    values_fill = 0                 
  )

senate_pivoted_data

# A tibble: 786 × 8
    year state       state_po total_senate DEMOCRAT LIBERTARIAN OTHER REPUBLICAN
   <int> <chr>       <chr>           <int>    <dbl>       <dbl> <dbl>      <dbl>
 1  1976 ARIZONA     AZ             741210     54.0        0.99  1.66       43.3
 2  1976 CALIFORNIA  CA            7470586     46.9        0     2.93       50.2
 3  1976 CONNECTICUT CT            1361666     41.2        0     1.1        57.7
 4  1976 DELAWARE    DE             224795     43.6        0     0.58       55.8
 5  1976 FLORIDA     FL            2857534     63.0        0     0          37.0
 6  1976 HAWAII      HI             302092     53.7        0.46  5.18       40.6
 7  1976 INDIANA     IN            2161187     40.2        0     0.78       59.0
 8  1976 MAINE       ME             486193     60.2        0     0          39.8
 9  1976 MARYLAND    MD            1365290     56.6        0     4.6        38.8
10  1976 MASSACHUSE… MA            2491255     69.3        0     1.68       29.0
# ℹ 776 more rows
…
`summarise()` has grouped output by 'year', 'state', 'state_po'. You can
override using the `.groups` argument.

Code

president_pivoted_data <- president_data_simplified |>
  pivot_wider(
    names_from = party_simplified,  
    values_from = vote_share,       
    values_fill = 0                 
  )

president_pivoted_data 

# A tibble: 612 × 8
    year state    state_po total_president DEMOCRAT LIBERTARIAN OTHER REPUBLICAN
   <int> <chr>    <chr>              <int>    <dbl>       <dbl> <dbl>      <dbl>
 1  1976 ALABAMA  AL               1182850     55.7        0.13  1.53       42.6
 2  1976 ALASKA   AK                123574     35.6        5.49  0.95       57.9
 3  1976 ARIZONA  AZ                742719     39.8        1.03  2.8        56.4
 4  1976 ARKANSAS AR                767535     65.0        0     0.13       34.9
 5  1976 CALIFOR… CA               7803770     48.0        0     2.3        49.8
 6  1976 COLORADO CO               1081440     42.6        0.49  2.87       54.0
 7  1976 CONNECT… CT               1386355     46.7        0     1.38       51.9
 8  1976 DELAWARE DE                235642     52.0        0     1.44       46.6
 9  1976 DISTRIC… DC                168830     81.6        0     1.86       16.5
10  1976 FLORIDA  FL               3150631     51.9        0     1.43       46.6
# ℹ 602 more rows
…
joined_data <- state_year_tibble |>
  left_join(house_pivoted_data, by = c("year", "state", "state_po")) |>
  left_join(senate_pivoted_data, by = c("year", "state", "state_po")) |>
  left_join(president_pivoted_data, by = c("year", "state", "state_po")) |>
  mutate(across(c(total_house, total_senate, total_president), ~ replace_na(., 0))) |>
  mutate(across(everything(), ~ replace_na(., 0.00)))

write.csv(joined_data, 'joined_data.csv', row.names=FALSE)

joined_data

# A tibble: 2,352 × 18
    year state       state_po total_house `DEMOCRAT(House)` `OTHER(House)`
   <int> <chr>       <chr>          <int>             <dbl>          <dbl>
 1  1976 ALABAMA     AL           2728482             503.            1.04
 2  1976 ALASKA      AK            118208              28.9           0.25
 3  1976 ARIZONA     AZ           1626123             195.           10.8 
 4  1976 ARKANSAS    AR            503997             255.            0   
 5  1976 CALIFORNIA  CA          17235407            2504.           50.6 
 6  1976 COLORADO    CO           1979691             223.           13.8 
 7  1976 CONNECTICUT CT           4700193             303.            7.01
 8  1976 DELAWARE    DE           1075425              47.6           0.94
 9  1976 FLORIDA     FL           4709797            1014             8.92
10  1976 GEORGIA     GA           2239818             779.            0.55
# ℹ 2,342 more rows
# ℹ 12 more variables: `REPUBLICAN(House)` <dbl>, `LIBERTARIAN(House)` <dbl>,
#   total_senate <int>, DEMOCRAT.x <dbl>, LIBERTARIAN.x <dbl>, OTHER.x <dbl>,
#   REPUBLICAN.x <dbl>, total_president <int>, DEMOCRAT.y <dbl>,
#   LIBERTARIAN.y <dbl>, OTHER.y <dbl>, REPUBLICAN.y <dbl>
…
